

    _______  __   __      .___  ___.  __  ___  __    __       __   _______
   |   ____||  | |  |     |   \/   | |  |/  / |  |  |  |     |  | |       \
   |  |__   |  | |  |     |  \  /  | |  '  /  |  |  |  |     |  | |  .--.  |
   |   __|  |  | |  |     |  |\/|  | |    <   |  |  |  |     |  | |  |  |  |
   |  |     |  | |  `----.|  |  |  | |  .  \  |  `--'  |  __ |  | |  '--'  |
   |__|     |__| |_______||__|  |__| |__|\__\  \______/  (__)|__| |_______/

                                                                by Rizaldy
